%YAML 1.1
%TAG !u! tag:unity3d.com,2011:
--- !u!114 &11400000
MonoBehaviour:
  m_ObjectHideFlags: 0
  m_CorrespondingSourceObject: {fileID: 0}
  m_PrefabInternal: {fileID: 0}
  m_GameObject: {fileID: 0}
  m_Enabled: 1
  m_EditorHideFlags: 0
  m_Script: {fileID: 11500000, guid: 4d10323487cb44348b830bc017eb40b4, type: 3}
  m_Name: SteamVR_Input_References
  m_EditorClassIdentifier: 
  actionSetNames:
  - _default
  - platformer
  - buggy
  actionSetObjects:
  - {fileID: 11400000, guid: 57f6c7ff9b26ea04fa12caa1d4c63e6e, type: 2}
  - {fileID: 11400000, guid: 092582f40f923894ebed87d5a4f01e0c, type: 2}
  - {fileID: 11400000, guid: 058aa10cd04b4354ea9794c196c842d5, type: 2}
  actionNames:
  - __actions_default_in_InteractUI
  - __actions_default_in_Teleport
  - __actions_default_in_GrabPinch
  - __actions_default_in_GrabGrip
  - __actions_default_in_Pose
  - __actions_default_in_SkeletonLeftHand
  - __actions_default_in_SkeletonRightHand
  - __actions_default_in_Squeeze
  - __actions_default_out_Haptic
  - __actions_platformer_in_Move
  - __actions_platformer_in_Jump
  - __actions_buggy_in_Steering
  - __actions_buggy_in_Throttle
  - __actions_buggy_in_Brake
  - __actions_buggy_in_Reset
  actionObjects:
  - {fileID: 11400000, guid: 2d8034d92a67dc545960599c8fa0c3ed, type: 2}
  - {fileID: 11400000, guid: f14a226682189cb4ea7d600b40919ca5, type: 2}
  - {fileID: 11400000, guid: 4bf2d1f45f5e41a419144c1e4bc2a3bc, type: 2}
  - {fileID: 11400000, guid: 3d877fc6697a3cc48aab174b7ef20d05, type: 2}
  - {fileID: 11400000, guid: abae880f21070a04a905c87216142c2b, type: 2}
  - {fileID: 11400000, guid: 27462f32e2d74014db19ad98f983d86c, type: 2}
  - {fileID: 11400000, guid: bb78b806a048924409468a27d45fe008, type: 2}
  - {fileID: 11400000, guid: d770906394e0ca346a47441e54e7c865, type: 2}
  - {fileID: 11400000, guid: c3b8365f06eb3034b83be4c009394131, type: 2}
  - {fileID: 11400000, guid: 6c656ba918c01a54aa5a31ca436a60ba, type: 2}
  - {fileID: 11400000, guid: 0ef645f47b6c7e54bad78be621be206e, type: 2}
  - {fileID: 11400000, guid: 54bdfb100d8b6134a93daf0244a9b91e, type: 2}
  - {fileID: 11400000, guid: 129e60bd0c53c6c41a73e7092ae5a0be, type: 2}
  - {fileID: 11400000, guid: f4517e75cca6ff341ac8a2e6f45c4a3e, type: 2}
  - {fileID: 11400000, guid: ea1a4f6ec5027e249afbd97c3587f133, type: 2}
