%YAML 1.1
%TAG !u! tag:unity3d.com,2011:
--- !u!114 &11400000
MonoBehaviour:
  m_ObjectHideFlags: 0
  m_CorrespondingSourceObject: {fileID: 0}
  m_PrefabInternal: {fileID: 0}
  m_GameObject: {fileID: 0}
  m_Enabled: 1
  m_EditorHideFlags: 0
  m_Script: {fileID: 11500000, guid: 02b1c930c612dbc469d258783cb8be34, type: 3}
  m_Name: __actions_default_in_Squeeze
  m_EditorClassIdentifier: 
  changeTolerance: 0.000001
  fullPath: /actions/default/in/Squeeze
  actionSet: {fileID: 11400000, guid: 57f6c7ff9b26ea04fa12caa1d4c63e6e, type: 2}
  direction: 0
