%YAML 1.1
%TAG !u! tag:unity3d.com,2011:
--- !u!114 &11400000
MonoBehaviour:
  m_ObjectHideFlags: 0
  m_CorrespondingSourceObject: {fileID: 0}
  m_PrefabInternal: {fileID: 0}
  m_GameObject: {fileID: 0}
  m_Enabled: 1
  m_EditorHideFlags: 0
  m_Script: {fileID: 11500000, guid: e71098feda8cbbc478ef5a46e6233465, type: 3}
  m_Name: __actions_buggy
  m_EditorClassIdentifier: 
  allActions:
  - {fileID: 11400000, guid: 54bdfb100d8b6134a93daf0244a9b91e, type: 2}
  - {fileID: 11400000, guid: 129e60bd0c53c6c41a73e7092ae5a0be, type: 2}
  - {fileID: 11400000, guid: f4517e75cca6ff341ac8a2e6f45c4a3e, type: 2}
  - {fileID: 11400000, guid: ea1a4f6ec5027e249afbd97c3587f133, type: 2}
  nonVisualInActions:
  - {fileID: 11400000, guid: 54bdfb100d8b6134a93daf0244a9b91e, type: 2}
  - {fileID: 11400000, guid: 129e60bd0c53c6c41a73e7092ae5a0be, type: 2}
  - {fileID: 11400000, guid: f4517e75cca6ff341ac8a2e6f45c4a3e, type: 2}
  - {fileID: 11400000, guid: ea1a4f6ec5027e249afbd97c3587f133, type: 2}
  visualActions: []
  poseActions: []
  skeletonActions: []
  outActionArray: []
  fullPath: /actions/buggy
  usage: single
  inActions: {fileID: 11400000, guid: a2ea12b552dc6564a84098034386f2d2, type: 2}
